%YAML 1.1
%TAG !u! tag:unity3d.com,2011:
--- !u!1045 &1
EditorBuildSettings:
  m_ObjectHideFlags: 0
  serializedVersion: 2
  m_Scenes:
  - enabled: 0
    path: Assets/Scenes/old_scenes/Level.unity
  - enabled: 1
    path: Assets/Scenes/title.unity
  - enabled: 1
    path: Assets/Scenes/level1.unity
  - enabled: 1
    path: Assets/Scenes/level_select.unity
  - enabled: 1
    path: Assets/Scenes/level2.unity
  - enabled: 1
    path: Assets/Scenes/level3.unity
  - enabled: 1
    path: Assets/Scenes/controls.unity
  - enabled: 1
    path: Assets/Scenes/level4.unity
  - enabled: 1
    path: Assets/Scenes/level5.unity
  - enabled: 1
    path: Assets/Scenes/level6.unity
  - enabled: 1
    path: Assets/Scenes/win.unity
